E:\academy\exercise_12\src\main\java\com\enigma\model\Room.java
E:\academy\exercise_12\src\main\java\com\enigma\model\Student.java
E:\academy\exercise_12\src\main\java\com\enigma\StudentServlet.java
E:\academy\exercise_12\src\main\java\com\enigma\servlet\student\Input.java
E:\academy\exercise_12\src\main\java\com\enigma\StudentServletDetail.java
E:\academy\exercise_12\src\main\java\com\enigma\config\HibernateConfig.java
E:\academy\exercise_12\src\main\java\com\enigma\dao\StudentService.java
E:\academy\exercise_12\src\main\java\com\enigma\input.java
E:\academy\exercise_12\src\main\java\com\enigma\model\Student_Subject.java
E:\academy\exercise_12\src\main\java\com\enigma\model\Subject.java
E:\academy\exercise_12\src\main\java\com\enigma\servlet\student\List.java
